…
print(t_test)
```

    ## # A tibble: 27 x 11
    ##    gene_symbol estimate estimate1 estimate2 statistic p.value parameter conf.low
    ##    <fct>          <dbl>     <dbl>     <dbl>     <dbl>   <dbl>     <dbl>    <dbl>
    ##  1 ATRX        -0.136      0.371     0.507    -1.03   3.07e-1      40.4  -0.402 
    ##  2 TP53        -0.00171    0.0260    0.0277   -0.131  8.96e-1      43.0  -0.0281
    ##  3 RB1         -1.07       2.33      3.41     -1.61   1.20e-1      24.7  -2.45  
    ##  4 ALG5        -2.05       1.80      3.86     -4.51   8.17e-5      32.0  -2.98  
    ##  5 MGMT         0.173      0.862     0.689     0.933  3.56e-1      43.0  -0.201 
    ##  6 PTEN        -0.969      2.06      3.03     -2.36   2.35e-2      36.7  -1.80  
    ##  7 ADARB2       0.434      0.514     0.0801    5.96   2.01e-6      28.0   0.285 
    ##  8 CDKN2A      -0.876      0.0505    0.926    -2.15   4.31e-2      21.2  -1.72  
    ##  9 ZFPM2        0.718      0.970     0.252     4.33   1.88e-4      26.8   0.378 
    ## 10 EZH2        -0.00975    0.646     0.655    -0.0453 9.64e-1      37.3  -0.446 
    ## # ... with 17 more rows, and 3 more variables: conf.high <dbl>, method <chr>,
    ## #   alternative <chr>
…
